<?xml version="1.0" encoding="UTF-8"?>
<!DOCTYPE svg PUBLIC "-//W3C//DTD SVG 1.1//EN" "http://www.w3.org/Graphics/SVG/1.1/DTD/svg11.dtd">
<!-- Creator: CorelDRAW 2017 -->
<svg xmlns="http://www.w3.org/2000/svg" xml:space="preserve" width="490px" height="300px" version="1.1" style="shape-rendering:geometricPrecision; text-rendering:geometricPrecision; image-rendering:optimizeQuality; fill-rule:evenodd; clip-rule:evenodd"
viewBox="0 0 22333060 13673340"
 xmlns:xlink="http://www.w3.org/1999/xlink">
 <defs>
  <style type="text/css">
   <![CDATA[
    .fil1 {fill:none}
    .fil7 {fill:#0E60C4}
    .fil11 {fill:#2978D6}
    .fil5 {fill:#2F2E41}
    .fil4 {fill:#2F2E41}
    .fil12 {fill:#784F69}
    .fil6 {fill:#A0616A}
    .fil9 {fill:#D0CDE1}
    .fil8 {fill:#EDA8A8}
    .fil2 {fill:#F2F2F2}
    .fil10 {fill:#FFB9B9}
    .fil14 {fill:#2F2E41;fill-rule:nonzero}
    .fil3 {fill:#2F2E41;fill-rule:nonzero}
    .fil0 {fill:#2978D6;fill-opacity:0.400000}
    .fil13 {fill:#2C4B7D;fill-opacity:0.850980}
   ]]>
  </style>
 </defs>
 <g id="Layer_x0020_1">
  <metadata id="CorelCorpID_0Corel-Layer"/>
  <g id="_2648442813232">
   <path class="fil0" d="M12374820 3490730c-956140,-33240 -1866780,-341870 -2736480,-679570 -869720,-337720 -1730870,-711940 -2664110,-890110 -600240,-115080 -1286620,-131340 -1770290,190430 -465370,310250 -615760,844300 -696720,1340250 -60710,373330 -96620,765990 70180,1115390 115670,242580 321170,446460 463280,678840 494320,808400 144940,1805310 -390900,2594670 -251140,370220 -542780,723890 -736750,1117760 -193980,393850 -283660,845770 -114060,1247910 168280,398880 569090,697890 1003120,908410 881830,427550 1920540,550020 2934300,619300 2242900,153500 4497930,87020 6746730,20550 832340,-24680 1668230,-49650 2486960,-178320 454730,-71510 924240,-184970 1254270,-457980 418970,-347620 522830,-936340 242140,-1372160 -470990,-731140 -1772810,-912850 -2102420,-1697470 -181260,-431830 4880,-912990 268150,-1313500 564940,-859370 1511760,-1613120 1561690,-2595400 34280,-674550 -420900,-1350150 -1124700,-1669390 -737790,-334620 -1760690,-292520 -2304650,261340 -560790,568910 -1545600,788300 -2389740,759050z"/>
   <rect class="fil1" x="-10" y="-10" width="22333070" height="13673340"/>
   <ellipse class="fil2" cx="11532200" cy="12847360" rx="4669970" ry="825980"/>
   <path class="fil3" d="M7624400 5490930c0,-607880 444280,-1157460 1162570,-1554560 715400,-395510 1703380,-640140 2794360,-640140 1090990,0 2078970,244630 2794370,640140 718290,397100 1162570,946680 1162570,1554560l-31770 0c0,-595440 -437980,-1135290 -1146060,-1526770 -710970,-393050 -1693510,-636160 -2779110,-636160 -1085590,0 -2068130,243110 -2779100,636160 -708080,391480 -1146060,931330 -1146060,1526770l-31770 0z"/>
   <path class="fil4" d="M13162360 4151020l-3206240 0c-634150,-1068740 -634160,-2137500 0,-3206240l3206240 0c-886680,1068740 -886680,2137500 0,3206240z"/>
   <path class="fil5" d="M10846780 3449430c18560,8510 40900,-4190 51860,-21440 41680,-65670 -35070,-150340 -18450,-226320 13310,-60880 82490,-97020 96640,-157710 13730,-58970 -28620,-125440 10,-178800 22430,-41790 78440,-52790 125310,-45480 46870,7320 91360,27940 138710,30820 63080,3850 123240,-23930 184930,-37690 61690,-13760 136930,-8370 173240,43390 46600,66440 -670,158970 15550,238510 12880,63150 65750,115430 66890,179880 400,22890 -59810,4440 -56620,27130 3210,22670 -25250,2710 -2500,10 19070,-4660 32920,-21150 34240,-40720 2710,-18890 38200,-25180 37800,-44270 -970,-44720 79880,-14560 93200,-57270 12640,-41190 19140,-84170 19140,-127310 0,-60150 -12590,-119740 -36850,-174760 -18130,-40690 -42820,-79190 -51560,-122860 -11890,-59290 6800,-122940 -12780,-180150 -26400,-77100 -113760,-116410 -194860,-124380 -81110,-7980 -163520,6310 -244150,-5460 -72240,-10540 -142170,-41850 -215040,-37330 -87430,5460 -163500,61790 -224100,125030 -60610,63250 -112020,136000 -180850,190170 -21020,14480 -40510,31320 -57960,49940 -35050,42710 -38600,103580 -28850,157970 9750,54400 30970,106290 39920,160810 8430,51250 5830,103600 9460,155420 3620,51810 14380,105180 45580,146690 25280,34370 65050,55150 107720,56300 14590,330 26900,-12780 41630,-9360 18400,4280 26410,21750 42740,29240z"/>
   <polygon class="fil6" points="10222800,7214390 10276850,7546570 10385020,7399780 10323210,7175770 "/>
   <path class="fil7" d="M10292320 4703790l-85160 224390c0,0 -84800,1142930 -84800,1227900 0,84970 61810,1174190 84970,1220530 0,0 100440,-146760 231760,-123590 131310,23170 77240,-386240 77240,-386240l123610 -1011980 -23180 -509850 -324440 -641160z"/>
   <path class="fil8" d="M10817610 3467800c0,0 254930,648890 108150,772490 -146770,123610 818830,-208570 818830,-208570l-23160 -84970c0,0 -316730,-123590 -162220,-478950 154490,-355340 -741600,0 -741600,0z"/>
   <path class="fil5" d="M10415910 12135170c0,0 -108140,-30890 -169950,46360 -61790,77260 -293550,270370 -293550,270370 0,0 -448040,-46350 -509850,177670 -61790,224030 702980,224030 888370,169960 185400,-54090 224030,0 224030,0 0,0 571650,46340 571650,-46360 0,-92710 -54070,-409420 -54070,-409420l-656630 -208580z"/>
   <path class="fil5" d="M12231280 12652750l-100440 309000c0,0 -301270,417130 -131310,502110 169950,84970 772490,169940 772490,-54070l0 -424880c0,0 -61790,-301270 -123600,-332160 -61800,-30910 -417140,0 -417140,0z"/>
   <path class="fil9" d="M10525310 7101360c0,0 -325690,282980 -317970,321610 7730,38630 162220,2518330 162220,2518330l84980 1606770c0,0 -108150,378520 -54070,463510 54070,84970 -77250,108140 -77250,108140 0,0 556190,502120 787930,285820l216310 -2804150 594820 2039390c0,0 100420,1081490 216290,1081490 115870,0 587090,23170 579370,-38630 -7730,-61800 23180,-533020 -30910,-811110 -54060,-278110 -417130,-2479710 -417130,-2479710 0,0 -31220,-1887400 50050,-2063810 81270,-176410 -42330,-361820 -42330,-361820l-540750 -208560 -648890 77240 -562670 265490z"/>
   <circle class="fil10" cx="11180680" cy="3189700" r="540740"/>
   <path class="fil11" d="M12493920 4356170c-54180,-153410 -181970,-269590 -339910,-308970 -155400,-38990 -308310,-91310 -455720,-154590 -147410,-63280 -548470,262650 -656620,262650 -108150,0 -108150,-69520 -108150,-69520 0,0 -278090,293540 -424860,324440 -146780,30900 -363080,393970 -285820,594820 52420,128730 128520,246830 224040,347680 95510,100860 -30910,1081490 69520,1282340 0,0 -247210,471220 -15460,502130 231760,30900 1120130,-77250 1274620,30900 154510,108140 440330,-23180 478950,123590 38630,146780 123600,177690 123600,177690 0,0 131330,-208580 54070,-332180 -77250,-123600 61740,-2780980 61740,-2780980z"/>
   <path class="fil6" d="M11922280 7260740l-123600 77240c0,0 131330,455790 185390,471220 54070,15460 181360,-389690 181360,-389690l-243150 -158770z"/>
   <path class="fil12" d="M10754080 3395350c18570,8510 40900,-4180 51860,-21420 41680,-65670 -35060,-150350 -18450,-226340 13310,-60880 82490,-97020 96640,-157700 13730,-58970 -28620,-125440 10,-178800 22430,-41810 78440,-52800 125310,-45470 46860,7310 91360,27910 138710,30810 63080,3850 123240,-23930 184930,-37690 61690,-13760 136950,-8380 173240,43370 46600,66460 -670,158990 15550,238530 12890,63140 159690,107460 173010,64760 12640,-41200 19140,-84170 19140,-127310 0,-60160 -12590,-119740 -36850,-174760 -18130,-40690 -42820,-79190 -51580,-122860 -11870,-59280 6810,-122940 -12760,-180150 -26410,-77090 -113760,-116400 -194860,-124380 -81110,-7980 -163520,6310 -244150,-5460 -72240,-10540 -142170,-41850 -215040,-37330 -87420,5460 -163500,61790 -224100,125030 -60610,63250 -112020,136000 -180850,190180 -21020,14450 -40510,31300 -57960,49920 -35050,42710 -38620,103570 -28850,157970 9760,54400 30970,106290 39920,160820 8430,51240 5830,103600 9460,155410 3620,51810 14370,105180 45580,146710 25280,34350 65050,55120 107720,56270 14590,340 26900,-12760 41630,-9350 18400,4280 26410,21760 42740,29240z"/>
   <path class="fil13" d="M12094820 4532180l243050 -149110c0,0 691070,1415620 567150,1824950 -123930,409320 -640420,1266320 -640420,1266320 0,0 -452550,-67330 -411490,-162490 41060,-95170 308350,-706000 327150,-784430 18780,-78430 144760,-588460 72300,-638530 -72460,-50080 -278100,-1295770 -278100,-1295770l120360 -60940z"/>
   <path class="fil7" d="M12184920 4271200l308990 84970c0,0 610280,1452290 463490,1853980 -146760,401700 -710680,1228260 -710680,1228260 0,0 -448060,-92700 -401700,-185400 46360,-92700 347620,-687520 370790,-764770 23180,-77240 177680,-579350 108160,-633440 -69540,-54080 -401700,-1390490 -401700,-1390490l262650 -193110z"/>
   <path class="fil3" d="M15538270 5490930c0,636880 -444170,1212760 -1162260,1628980 -715490,414730 -1703590,671250 -2794680,671250 -1091080,0 -2079190,-256520 -2794670,-671250 -718110,-416220 -1162260,-992100 -1162260,-1628980l31770 0c0,624720 438090,1191030 1146370,1601570 710860,412020 1693300,666890 2778790,666890 1085500,0 2067920,-254860 2778800,-666890 708280,-410540 1146370,-976850 1146370,-1601570l31770 0z"/>
   <path class="fil3" d="M14813020 7821660c-449820,242590 -969450,436430 -1537580,568210 -547270,126930 -1139510,196320 -1757680,196320 -592740,0 -1161760,-63830 -1690230,-181050 -548300,-121630 -1052690,-300690 -1494440,-525520l14390 -28310c439640,223770 941490,401930 1486870,522920 525950,116670 1092650,180200 1683410,180200 615900,0 1205750,-69100 1750610,-195480 565270,-131110 1082220,-323920 1529640,-565220l15010 27930z"/>
   <path class="fil3" d="M13553490 2706990c851320,223750 1578780,583640 2104120,1033210 513300,439270 833900,964340 889120,1532120l-31530 2970c-54360,-559110 -371040,-1077010 -878200,-1511020 -521740,-446490 -1244860,-804080 -2091570,-1026630l8060 -30650z"/>
   <path class="fil3" d="M6724160 4524230c141120,-259370 340020,-503180 587640,-726020 250870,-225770 551900,-430180 893640,-607600l14520 28160c-339230,176120 -638000,378990 -886940,603020 -245070,220540 -441750,461530 -581060,717580l-27800 -15140z"/>
   <path class="fil4" d="M10400880 9963180l3206260 0c634150,-1068760 634150,-2137500 0,-3206260l-3206260 0c886690,1068760 886690,2137500 0,3206260z"/>
   <path class="fil4" d="M8844780 7913200l-3206240 0c-634150,-1068760 -634150,-2137500 0,-3206260l3206240 0c-886690,1068760 -886690,2137500 0,3206260z"/>
   <path class="fil4" d="M14221600 5802890l3769900 0c745630,-1256630 745630,-2513270 0,-3769890l-3769900 0c1042560,1256620 1042560,2513260 0,3769890z"/>
   <circle class="fil11" cx="4933490" cy="2456080" r="852990"/>
   <path class="fil14" d="M5969480 2108570c0,-230830 -93580,-439820 -244830,-591070 -151250,-151260 -360240,-244830 -591070,-244830 -230830,0 -439820,93560 -591070,244830 -151250,151250 -244830,360240 -244830,591070 0,230820 93570,439810 244820,591080 151260,151250 360250,244810 591080,244810 230830,0 439820,-93570 591070,-244830 151260,-151250 244830,-360240 244830,-591060zm-220670 -615230c157450,157450 254850,374980 254850,615230 0,240240 -97400,457780 -254850,615220 -157450,157460 -374980,254860 -615230,254860 -240250,0 -457790,-97400 -615240,-254840 -157440,-157460 -254840,-375000 -254840,-615240 0,-240250 97400,-457780 254850,-615230 157440,-157460 374980,-254860 615230,-254860 240250,0 457780,97400 615230,254860z"/>
   <circle class="fil2" cx="17639850" cy="7744600" r="496280"/>
   <path class="fil14" d="M18235460 7542410c0,-132320 -53640,-252150 -140350,-338840 -86700,-86710 -206500,-140350 -338840,-140350 -132320,0 -252140,53640 -338850,140350 -86700,86700 -140340,206520 -140340,338840 0,132340 53640,252140 140340,338850 86700,86700 206530,140340 338850,140340 132340,0 252150,-53640 338840,-140340 86710,-86690 140350,-206510 140350,-338850zm-116190 -363000c92910,92890 150380,221260 150380,363000 0,141760 -57470,270110 -150380,363010 -92890,92900 -221250,150370 -363000,150370 -141740,0 -270110,-57470 -363010,-150370 -92890,-92900 -150370,-221250 -150370,-363010 0,-141740 57480,-270110 150370,-363000 92900,-92890 221270,-150370 363010,-150370 141750,0 270110,57480 363000,150370z"/>
   <circle class="fil2" cx="7082050" cy="9648300" r="713410"/>
   <path class="fil14" d="M7945700 9357660c0,-192290 -77930,-366380 -203940,-492390 -125980,-125980 -300080,-203930 -492370,-203930 -192280,0 -366390,77950 -492380,203930 -125980,126000 -203940,300100 -203940,492390 0,192280 77960,366390 203940,492370 126010,126000 300100,203930 492380,203930 192290,0 366390,-77940 492370,-203930 126000,-125980 203940,-300090 203940,-492370zm-179780 -516550c132200,132200 213970,314840 213970,516550 0,201700 -81770,384340 -213970,516520 -132180,132200 -314820,213970 -516530,213970 -201700,0 -384340,-81770 -516540,-213970 -132180,-132180 -213960,-314820 -213960,-516520 0,-201710 81780,-384350 213960,-516550 132200,-132180 314840,-213960 516540,-213960 201710,0 384350,81780 516530,213960z"/>
  </g>
 </g>
</svg>
