// Jest Snapshot v1, https://goo.gl/fbAQLP

exports[`<Topic /> renders without exploding 1`] = `
<Fragment>
  <FormattedMessage
    defaultMessage="Dismiss Filter"
    id="dismiss_filter"
    values={Object {}}
  >
    <Component />
  </FormattedMessage>
</Fragment>
`;
