<svg xmlns="http://www.w3.org/2000/svg" viewBox="0 0 512 512">
  <path d="M336 32c-48.6 0-92.6 9-124.5 23.4-.9.4-51.5 21-51.5 56.6v16.7C76.1 132.2 0 163.4 0 208v192c0 44.2 78.8 80 176 80s176-35.8 176-80v-16.4c89.7-3.7 160-37.9 160-79.6V112c0-37-62.1-80-176-80zm-16 368c0 13.9-50.5 48-144 48S32 413.9 32 400v-50.1c31.8 20.6 84.4 34.1 144 34.1s112.2-13.5 144-34.1V400zm0-96c0 13.9-50.5 48-144 48S32 317.9 32 304v-50.1c31.8 20.6 84.4 34.1 144 34.1s112.2-13.5 144-34.1V304zm-144-48c-81 0-146.7-21.5-146.7-48S95 160 176 160s146.7 21.5 146.7 48S257 256 176 256zm304 48c0 13.1-45 43.6-128 47.3v-64.1c52.8-2.2 99.1-14.6 128-33.3V304zm0-96c0 13.1-45.1 43.4-128 47.2V208c0-5.6-1.7-11-4.1-16.3 54.6-1.7 102.4-14.5 132.1-33.8V208zm-144-48c-7.3 0-14-.5-20.9-.9-36.9-21.7-85-28.2-115.6-30-6.3-5.3-10.1-11-10.1-17.1 0-26.5 65.7-48 146.7-48s146.7 21.5 146.7 48S417 160 336 160z"/>
</svg>
