<svg xmlns="http://www.w3.org/2000/svg" viewBox="0 0 512 512">
  <path d="M448 0H64C28.65 0 0 28.65 0 64v288c0 35.35 28.65 64 64 64h96v83.98c0 7.1 5.83 12.02 12.05 12.02 2.41 0 4.87-.74 7.08-2.37L304 416h144c35.35 0 64-28.65 64-64V64c0-35.35-28.65-64-64-64zm32 352c0 17.64-14.36 32-32 32H293.34l-8.53 6.4L192 459.98V384H64c-17.64 0-32-14.36-32-32V64c0-17.64 14.36-32 32-32h384c17.64 0 32 14.36 32 32v288zM289.94 201.05l-59.06-16.86c-8.75-2.52-14.88-10.61-14.88-19.7 0-11.3 9.19-20.48 20.47-20.48h36.91c8.24 0 16.08 2.56 22.63 7.32 2.99 2.17 7.22 1.46 9.84-1.16l11.42-11.42c3.5-3.5 2.94-9.22-.99-12.23-12.26-9.41-27.18-14.51-42.9-14.51H272V88c0-4.42-3.58-8-8-8h-16c-4.42 0-8 3.58-8 8v24h-3.53c-30.59 0-55.13 26.3-52.24 57.48 2.06 22.16 19.06 40.12 40.45 46.22l56.44 16.11c8.75 2.52 14.88 10.61 14.88 19.7 0 11.3-9.19 20.48-20.47 20.48h-36.91c-8.24 0-16.08-2.56-22.63-7.32-2.99-2.17-7.22-1.46-9.84 1.16l-11.42 11.42c-3.5 3.5-2.94 9.21.99 12.23 12.26 9.41 27.18 14.51 42.9 14.51H240v24c0 4.42 3.58 8 8 8h16c4.42 0 8-3.58 8-8v-24h1.36c22.81 0 44.33-13.59 51.72-35.17 10.15-29.64-7.28-59.79-35.14-67.77z"/>
</svg>
