<?xml version="1.0" standalone="no"?>
<!DOCTYPE svg PUBLIC "-//W3C//DTD SVG 20010904//EN"
 "http://www.w3.org/TR/2001/REC-SVG-20010904/DTD/svg10.dtd">
<svg version="1.0" xmlns="http://www.w3.org/2000/svg"
 width="767.000000pt" height="658.000000pt" viewBox="0 0 767.000000 658.000000"
 preserveAspectRatio="xMidYMid meet">
<metadata>
Created by potrace 1.16, written by Peter Selinger 2001-2019
</metadata>
<g transform="translate(0.000000,658.000000) scale(0.100000,-0.100000)"
fill="#000" stroke="none">
<path d="M1935 6565 c-492 -61 -926 -260 -1262 -579 -256 -243 -479 -614 -568
-949 -54 -201 -59 -247 -59 -507 0 -228 2 -254 27 -375 165 -785 695 -1532
1782 -2511 354 -318 1322 -1156 1670 -1446 44 -36 109 -96 145 -132 35 -36 73
-66 83 -66 10 0 141 105 290 233 500 427 595 507 607 507 7 0 24 -8 38 -19
103 -72 334 -171 498 -214 528 -139 1087 -48 1539 250 477 316 754 691 888
1203 l30 115 0 320 c1 298 -1 327 -22 419 -57 249 -166 489 -312 687 l-49 66
49 114 c254 594 247 1187 -20 1721 -288 575 -815 979 -1464 1123 -666 148
-1399 -9 -1894 -404 -47 -38 -102 -85 -120 -105 -19 -20 -38 -36 -43 -36 -4 0
-54 39 -110 86 -141 118 -257 192 -433 279 -238 117 -474 186 -745 220 -146
18 -401 18 -545 0z m633 -604 c319 -66 575 -201 787 -416 93 -93 132 -144 250
-322 77 -117 145 -213 151 -213 5 0 80 98 165 217 165 234 270 352 389 442
289 219 607 321 1000 321 134 0 208 -5 301 -21 484 -82 900 -372 1104 -771 59
-115 113 -266 141 -393 27 -124 25 -408 -4 -540 -25 -113 -70 -265 -78 -265
-3 0 -74 33 -157 74 -211 103 -343 145 -582 187 -288 49 -738 -1 -1036 -116
-279 -108 -497 -252 -704 -466 -287 -297 -458 -646 -520 -1061 -19 -125 -19
-392 0 -525 45 -316 170 -612 360 -847 30 -39 54 -73 53 -77 -4 -9 -362 -322
-399 -350 l-27 -19 -208 177 c-219 185 -271 229 -656 566 -1159 1013 -1698
1590 -2010 2152 -204 367 -285 740 -230 1060 55 317 202 590 436 812 256 243
629 401 996 421 159 9 356 -2 478 -27z m3382 -2155 c141 -25 258 -63 385 -125
649 -318 963 -1055 740 -1737 -142 -434 -480 -772 -919 -919 -156 -52 -266
-69 -451 -69 -253 0 -413 37 -640 150 -157 77 -268 159 -397 292 -155 160
-260 333 -328 542 -57 176 -65 230 -65 455 0 213 5 251 57 420 139 460 530
838 996 962 202 53 425 64 622 29z"/>
<path d="M5680 3330 c-16 -16 -20 -33 -20 -80 0 -40 -4 -62 -12 -64 -7 -2 -44
-11 -83 -20 -167 -39 -294 -138 -363 -283 -37 -77 -37 -79 -37 -203 0 -116 2
-129 27 -176 54 -102 183 -192 373 -260 l90 -32 3 -177 2 -178 -54 6 c-30 3
-94 22 -143 42 -163 68 -185 69 -249 13 -89 -79 -85 -215 8 -288 63 -49 207
-91 391 -115 l47 -6 0 -50 c0 -71 12 -89 60 -89 21 0 42 6 47 13 4 6 10 41 13
76 l5 65 83 17 c260 56 431 263 432 520 0 219 -135 367 -428 469 l-93 33 3
151 3 151 32 -1 c18 -1 67 -18 108 -38 88 -43 137 -46 185 -13 77 52 99 131
60 212 -38 78 -154 140 -285 151 -110 10 -105 6 -105 78 0 71 -14 96 -56 96
-13 0 -33 -9 -44 -20z m-20 -590 c0 -154 -1 -156 -60 -125 -85 44 -79 199 9
245 20 11 39 19 44 20 4 0 7 -63 7 -140z m201 -601 c16 -11 36 -33 44 -49 19
-37 19 -123 0 -160 -18 -35 -61 -70 -86 -70 -18 0 -19 10 -19 150 0 166 2 171
61 129z"/>
</g>
</svg>
